%YAML 1.1
%TAG !u! tag:unity3d.com,2011:
--- !u!114 &-4396876960023720649
MonoBehaviour:
  m_ObjectHideFlags: 11
  m_CorrespondingSourceObject: {fileID: 0}
  m_PrefabInstance: {fileID: 0}
  m_PrefabAsset: {fileID: 0}
  m_GameObject: {fileID: 0}
  m_Enabled: 1
  m_EditorHideFlags: 0
  m_Script: {fileID: 11500000, guid: d0353a89b1f911e48b9e16bdc9f2e058, type: 3}
  m_Name: 
  m_EditorClassIdentifier: 
  version: 5
--- !u!21 &2100000
Material:
  serializedVersion: 8
  m_ObjectHideFlags: 0
  m_CorrespondingSourceObject: {fileID: 0}
  m_PrefabInstance: {fileID: 0}
  m_PrefabAsset: {fileID: 0}
  m_Name: EnemyWoodMaterial
  m_Shader: {fileID: -6465566751694194690, guid: 26492c744cae71a42b839f2af2eb3e6a,
    type: 3}
  m_ValidKeywords: []
  m_InvalidKeywords: []
  m_LightmapFlags: 2
  m_EnableInstancingVariants: 0
  m_DoubleSidedGI: 0
  m_CustomRenderQueue: -1
  stringTagMap: {}
  disabledShaderPasses: []
  m_SavedProperties:
    serializedVersion: 3
    m_TexEnvs:
    - unity_Lightmaps:
        m_Texture: {fileID: 0}
        m_Scale: {x: 1, y: 1}
        m_Offset: {x: 0, y: 0}
    - unity_LightmapsInd:
        m_Texture: {fileID: 0}
        m_Scale: {x: 1, y: 1}
        m_Offset: {x: 0, y: 0}
    - unity_ShadowMasks:
        m_Texture: {fileID: 0}
        m_Scale: {x: 1, y: 1}
        m_Offset: {x: 0, y: 0}
    m_Ints: []
    m_Floats:
    - _BlendOpacity: 0.03
    - _LerpFactor: 0.03
    - _NoiseSize: 55.99
    - _PaternSize: 10
    - _PaternStranght: 6.3
    - _QueueControl: 0
    - _QueueOffset: 0
    - _TextureSize: 1
    m_Colors:
    - _BaseColor: {r: 0.4716981, g: 0.18022428, b: 0.3309291, a: 0}
    - _Offset: {r: 2.41, g: 0, b: 0, a: 0}
    - _UVNoise: {r: -0.61, g: 0.18, b: 0, a: 0}
    - _UVPatern: {r: 1, g: 0.17, b: 0, a: 0}
    - _UVVoronoi: {r: -0.71, g: 0.12, b: 0, a: 0}
  m_BuildTextureStacks: []
