Library\Bee\artifacts\mvdfrm\UnityEngine.UI.ref.dll_5E49C27AD3E43A2B.mvfrm
Library\Bee\artifacts\mvdfrm\Unity.Burst.Cecil.dll_A54E2329887E8EF5.mvfrm
Library\Bee\artifacts\mvdfrm\Unity.Burst.Cecil.Mdb.dll_25155A9FB66D6772.mvfrm
Library\Bee\artifacts\mvdfrm\Unity.Burst.Cecil.Pdb.dll_3C67D30F352268F5.mvfrm
Library\Bee\artifacts\mvdfrm\Unity.Burst.Cecil.Rocks.dll_F141F4CD3267C9B5.mvfrm
Library\Bee\artifacts\mvdfrm\Unity.Burst.Unsafe.dll_B99620B1F2A7240E.mvfrm
Library\Bee\artifacts\mvdfrm\Unity.VisualScripting.Antlr3.Runtime.dll_8E26DE88A7412C94.mvfrm
Library\Bee\artifacts\mvdfrm\UnityEngine.AccessibilityModule.dll_1647932CAEADD204.mvfrm
Library\Bee\artifacts\mvdfrm\UnityEngine.AIModule.dll_68AEA89ED5C0DF36.mvfrm
Library\Bee\artifacts\mvdfrm\UnityEngine.AndroidJNIModule.dll_2C3D59363CC93FF4.mvfrm
Library\Bee\artifacts\mvdfrm\UnityEngine.AnimationModule.dll_9C80F68BB4D88FAA.mvfrm
Library\Bee\artifacts\mvdfrm\UnityEngine.AssetBundleModule.dll_2F244AADA349A018.mvfrm
Library\Bee\artifacts\mvdfrm\UnityEngine.AudioModule.dll_52800B33F4CEF61C.mvfrm
Library\Bee\artifacts\mvdfrm\UnityEngine.ClothModule.dll_B968682ECEEBD500.mvfrm
Library\Bee\artifacts\mvdfrm\UnityEngine.CoreModule.dll_6900CD0BBB344C4D.mvfrm
Library\Bee\artifacts\mvdfrm\UnityEngine.CrashReportingModule.dll_9F5A940EA9D91205.mvfrm
Library\Bee\artifacts\mvdfrm\UnityEngine.DirectorModule.dll_882652F91B2EC5AA.mvfrm
Library\Bee\artifacts\mvdfrm\UnityEngine.dll_5AF610D23314CBB8.mvfrm
Library\Bee\artifacts\mvdfrm\UnityEngine.DSPGraphModule.dll_8D77B4628D8F96CB.mvfrm
Library\Bee\artifacts\mvdfrm\UnityEngine.GameCenterModule.dll_568AA351030A30E5.mvfrm
Library\Bee\artifacts\mvdfrm\UnityEngine.GIModule.dll_00EAF1AC716FC750.mvfrm
Library\Bee\artifacts\mvdfrm\UnityEngine.GridModule.dll_4671E8F9D388E244.mvfrm
Library\Bee\artifacts\mvdfrm\UnityEngine.HotReloadModule.dll_1DC9B491900BAB2C.mvfrm
Library\Bee\artifacts\mvdfrm\UnityEngine.ImageConversionModule.dll_00C17B70765129B7.mvfrm
Library\Bee\artifacts\mvdfrm\UnityEngine.IMGUIModule.dll_8ADFAA9ABB0089FD.mvfrm
Library\Bee\artifacts\mvdfrm\UnityEngine.InputLegacyModule.dll_C06965CC3B3B5609.mvfrm
Library\Bee\artifacts\mvdfrm\UnityEngine.InputModule.dll_B8F5D2E46B071AC0.mvfrm
Library\Bee\artifacts\mvdfrm\UnityEngine.JSONSerializeModule.dll_765F1C68ADE9328E.mvfrm
Library\Bee\artifacts\mvdfrm\UnityEngine.LocalizationModule.dll_922E8966EA95E697.mvfrm
Library\Bee\artifacts\mvdfrm\UnityEngine.ParticleSystemModule.dll_F26CDD5B17EA9D93.mvfrm
Library\Bee\artifacts\mvdfrm\UnityEngine.PerformanceReportingModule.dll_3F8A66D042616E0C.mvfrm
Library\Bee\artifacts\mvdfrm\UnityEngine.Physics2DModule.dll_E926E67C55D5873F.mvfrm
Library\Bee\artifacts\mvdfrm\UnityEngine.PhysicsModule.dll_983D3C5F4FBABC6D.mvfrm
Library\Bee\artifacts\mvdfrm\UnityEngine.ProfilerModule.dll_BA6C8C2FB4884CB7.mvfrm
Library\Bee\artifacts\mvdfrm\UnityEngine.RuntimeInitializeOnLoadManagerInitializerModule.dll_0F387F361FFBF608.mvfrm
Library\Bee\artifacts\mvdfrm\UnityEngine.ScreenCaptureModule.dll_9046C9EDC2555EF0.mvfrm
Library\Bee\artifacts\mvdfrm\UnityEngine.SharedInternalsModule.dll_84D2BA45ED7F2507.mvfrm
Library\Bee\artifacts\mvdfrm\UnityEngine.SpriteMaskModule.dll_3FB715E12479C65F.mvfrm
Library\Bee\artifacts\mvdfrm\UnityEngine.SpriteShapeModule.dll_4885780858EBD822.mvfrm
Library\Bee\artifacts\mvdfrm\UnityEngine.StreamingModule.dll_5115E3DC046046E8.mvfrm
Library\Bee\artifacts\mvdfrm\UnityEngine.SubstanceModule.dll_2DC0F8254FB344F6.mvfrm
Library\Bee\artifacts\mvdfrm\UnityEngine.SubsystemsModule.dll_AA647C42F2C1AE72.mvfrm
Library\Bee\artifacts\mvdfrm\UnityEngine.TerrainModule.dll_B283B7CE2579055B.mvfrm
Library\Bee\artifacts\mvdfrm\UnityEngine.TerrainPhysicsModule.dll_F2E7862E312D9820.mvfrm
Library\Bee\artifacts\mvdfrm\UnityEngine.TextCoreFontEngineModule.dll_3AA563384EE4832B.mvfrm
Library\Bee\artifacts\mvdfrm\UnityEngine.TextCoreTextEngineModule.dll_828D99A9DE683C49.mvfrm
Library\Bee\artifacts\mvdfrm\UnityEngine.TextRenderingModule.dll_B9863BF8798CDEE5.mvfrm
Library\Bee\artifacts\mvdfrm\UnityEngine.TilemapModule.dll_51801F4F3D35E664.mvfrm
Library\Bee\artifacts\mvdfrm\UnityEngine.TLSModule.dll_FFA905246140AA01.mvfrm
Library\Bee\artifacts\mvdfrm\UnityEngine.UIElementsModule.dll_AEA2DDAAF5EDEA69.mvfrm
Library\Bee\artifacts\mvdfrm\UnityEngine.UIElementsNativeModule.dll_EB44694273918820.mvfrm
Library\Bee\artifacts\mvdfrm\UnityEngine.UIModule.dll_642246CC3207E4E2.mvfrm
Library\Bee\artifacts\mvdfrm\UnityEngine.UmbraModule.dll_CD54B74C81F5A18F.mvfrm
Library\Bee\artifacts\mvdfrm\UnityEngine.UNETModule.dll_FBA714F5084341C6.mvfrm
Library\Bee\artifacts\mvdfrm\UnityEngine.UnityAnalyticsModule.dll_120C4E24C411EF8F.mvfrm
Library\Bee\artifacts\mvdfrm\UnityEngine.UnityConnectModule.dll_C1A4CE0D9C1A2183.mvfrm
Library\Bee\artifacts\mvdfrm\UnityEngine.UnityCurlModule.dll_CF9D97BD24EC8197.mvfrm
Library\Bee\artifacts\mvdfrm\UnityEngine.UnityTestProtocolModule.dll_0D5E459DAA926185.mvfrm
Library\Bee\artifacts\mvdfrm\UnityEngine.UnityWebRequestAssetBundleModule.dll_2ECB8C617154A5A0.mvfrm
Library\Bee\artifacts\mvdfrm\UnityEngine.UnityWebRequestAudioModule.dll_B786BAAEC8CC38A4.mvfrm
Library\Bee\artifacts\mvdfrm\UnityEngine.UnityWebRequestModule.dll_1260831A8145C436.mvfrm
Library\Bee\artifacts\mvdfrm\UnityEngine.UnityWebRequestTextureModule.dll_782CD42F23780AF9.mvfrm
Library\Bee\artifacts\mvdfrm\UnityEngine.UnityWebRequestWWWModule.dll_4D4FDF05CE27F8B5.mvfrm
Library\Bee\artifacts\mvdfrm\UnityEngine.VehiclesModule.dll_FFE94C7895589545.mvfrm
Library\Bee\artifacts\mvdfrm\UnityEngine.VFXModule.dll_80879D9337AE136E.mvfrm
Library\Bee\artifacts\mvdfrm\UnityEngine.VideoModule.dll_77898F9EB76111C1.mvfrm
Library\Bee\artifacts\mvdfrm\UnityEngine.VRModule.dll_B6F46D51D3C26A5A.mvfrm
Library\Bee\artifacts\mvdfrm\UnityEngine.WebGLModule.dll_F1EC8042E6A507DF.mvfrm
Library\Bee\artifacts\mvdfrm\UnityEngine.WindModule.dll_DF4FA8344C6ACAB6.mvfrm
Library\Bee\artifacts\mvdfrm\UnityEngine.XRModule.dll_E9B330565CFCB7B8.mvfrm