Library\Bee\artifacts\mvdfrm\UnityEditor.TestRunner.ref.dll_B49A4614ABCDBFD4.mvfrm
Library\Bee\artifacts\mvdfrm\UnityEngine.TestRunner.ref.dll_80B890C2D7911DBF.mvfrm
Library\Bee\artifacts\mvdfrm\UnityEngine.UI.ref.dll_DB7439BD0E712D01.mvfrm
Library\Bee\artifacts\mvdfrm\Unity.Burst.Cecil.dll_A54E2329887E8EF5.mvfrm
Library\Bee\artifacts\mvdfrm\Unity.Burst.Cecil.Mdb.dll_25155A9FB66D6772.mvfrm
Library\Bee\artifacts\mvdfrm\Unity.Burst.Cecil.Pdb.dll_3C67D30F352268F5.mvfrm
Library\Bee\artifacts\mvdfrm\Unity.Burst.Cecil.Rocks.dll_F141F4CD3267C9B5.mvfrm
Library\Bee\artifacts\mvdfrm\Unity.Burst.Unsafe.dll_B99620B1F2A7240E.mvfrm
Library\Bee\artifacts\mvdfrm\Unity.Plastic.Antlr3.Runtime.dll_0AD0316E08184C38.mvfrm
Library\Bee\artifacts\mvdfrm\Unity.Plastic.Newtonsoft.Json.dll_C40BCC747BD3317D.mvfrm
Library\Bee\artifacts\mvdfrm\Unity.VisualScripting.IonicZip.dll_694F65750EE80E37.mvfrm
Library\Bee\artifacts\mvdfrm\Unity.VisualScripting.YamlDotNet.dll_DCB9B7A776781C75.mvfrm
Library\Bee\artifacts\mvdfrm\Unity.VisualScripting.TextureAssets.dll_73D7E0FB37457A6D.mvfrm
Library\Bee\artifacts\mvdfrm\Unity.VisualScripting.Antlr3.Runtime.dll_8E26DE88A7412C94.mvfrm
Library\Bee\artifacts\mvdfrm\UnityEditor.Graphs.dll_D4F3703AC310C882.mvfrm
Library\Bee\artifacts\mvdfrm\UnityEditor.CoreModule.dll_E33E16B1BA088E50.mvfrm
Library\Bee\artifacts\mvdfrm\UnityEditor.DeviceSimulatorModule.dll_A04FBBA996BC4071.mvfrm
Library\Bee\artifacts\mvdfrm\UnityEditor.DiagnosticsModule.dll_90BD67FBD3C16E7F.mvfrm
Library\Bee\artifacts\mvdfrm\UnityEditor.dll_DC3F1694C898CA45.mvfrm
Library\Bee\artifacts\mvdfrm\UnityEditor.GraphViewModule.dll_6CF2D58BFE973876.mvfrm
Library\Bee\artifacts\mvdfrm\UnityEditor.PackageManagerUIModule.dll_224DFA855ED7F7AC.mvfrm
Library\Bee\artifacts\mvdfrm\UnityEditor.QuickSearchModule.dll_1BCCE9092C986AD8.mvfrm
Library\Bee\artifacts\mvdfrm\UnityEditor.SceneTemplateModule.dll_49A71DE8BA19F459.mvfrm
Library\Bee\artifacts\mvdfrm\UnityEditor.TextCoreFontEngineModule.dll_E8CBF2D878D885CE.mvfrm
Library\Bee\artifacts\mvdfrm\UnityEditor.TextCoreTextEngineModule.dll_30B4294A085C3EEC.mvfrm
Library\Bee\artifacts\mvdfrm\UnityEditor.UIBuilderModule.dll_C17B82A8714FB1AA.mvfrm
Library\Bee\artifacts\mvdfrm\UnityEditor.UIElementsModule.dll_EDA8AF9AFA145B8C.mvfrm
Library\Bee\artifacts\mvdfrm\UnityEditor.UIElementsSamplesModule.dll_A548CB451C4F42A1.mvfrm
Library\Bee\artifacts\mvdfrm\UnityEditor.UIServiceModule.dll_FA6D940B5A8701C4.mvfrm
Library\Bee\artifacts\mvdfrm\UnityEditor.UnityConnectModule.dll_696F795211C46506.mvfrm
Library\Bee\artifacts\mvdfrm\UnityEngine.AccessibilityModule.dll_7C4C897FBA901BF6.mvfrm
Library\Bee\artifacts\mvdfrm\UnityEngine.AIModule.dll_15150B399C7FB2A4.mvfrm
Library\Bee\artifacts\mvdfrm\UnityEngine.AndroidJNIModule.dll_6BF1986E4333CA62.mvfrm
Library\Bee\artifacts\mvdfrm\UnityEngine.AnimationModule.dll_3B7851B4D8F40D1C.mvfrm
Library\Bee\artifacts\mvdfrm\UnityEngine.ARModule.dll_CE87D03CF99D116D.mvfrm
Library\Bee\artifacts\mvdfrm\UnityEngine.AssetBundleModule.dll_5FB61BFA8EFF1FCA.mvfrm
Library\Bee\artifacts\mvdfrm\UnityEngine.AudioModule.dll_ADAD9891406AC70E.mvfrm
Library\Bee\artifacts\mvdfrm\UnityEngine.ClothModule.dll_1495F58C1A87A5F2.mvfrm
Library\Bee\artifacts\mvdfrm\UnityEngine.ClusterInputModule.dll_E90BEE67C34C37CC.mvfrm
Library\Bee\artifacts\mvdfrm\UnityEngine.ClusterRendererModule.dll_A5FC7E1B06774DF5.mvfrm
Library\Bee\artifacts\mvdfrm\UnityEngine.CoreModule.dll_065EEA04620DF97B.mvfrm
Library\Bee\artifacts\mvdfrm\UnityEngine.CrashReportingModule.dll_DD28D314C70FC7F3.mvfrm
Library\Bee\artifacts\mvdfrm\UnityEngine.DirectorModule.dll_4C1C48924EA74E58.mvfrm
Library\Bee\artifacts\mvdfrm\UnityEngine.dll_0EE35D6D270C572A.mvfrm
Library\Bee\artifacts\mvdfrm\UnityEngine.DSPGraphModule.dll_516DA9FBC1081F79.mvfrm
Library\Bee\artifacts\mvdfrm\UnityEngine.GameCenterModule.dll_963EE2890974BB53.mvfrm
Library\Bee\artifacts\mvdfrm\UnityEngine.GIModule.dll_AD515447382E9ABE.mvfrm
Library\Bee\artifacts\mvdfrm\UnityEngine.GridModule.dll_E3D005F27A628F72.mvfrm
Library\Bee\artifacts\mvdfrm\UnityEngine.HotReloadModule.dll_BCC10FBAB427289E.mvfrm
Library\Bee\artifacts\mvdfrm\UnityEngine.ImageConversionModule.dll_11EE7BCB889C05E9.mvfrm
Library\Bee\artifacts\mvdfrm\UnityEngine.IMGUIModule.dll_E60D37F8069C5AEF.mvfrm
Library\Bee\artifacts\mvdfrm\UnityEngine.InputLegacyModule.dll_F0FB371926F0D5BB.mvfrm
Library\Bee\artifacts\mvdfrm\UnityEngine.InputModule.dll_14236041B6A2EBB2.mvfrm
Library\Bee\artifacts\mvdfrm\UnityEngine.JSONSerializeModule.dll_DC6412BBB9CB7C80.mvfrm
Library\Bee\artifacts\mvdfrm\UnityEngine.LocalizationModule.dll_2758B8BA5AC82AC5.mvfrm
Library\Bee\artifacts\mvdfrm\UnityEngine.NVIDIAModule.dll_0521D6A42423FB47.mvfrm
Library\Bee\artifacts\mvdfrm\UnityEngine.ParticleSystemModule.dll_303B1C6135215381.mvfrm
Library\Bee\artifacts\mvdfrm\UnityEngine.PerformanceReportingModule.dll_FBB2FADF6937C93A.mvfrm
Library\Bee\artifacts\mvdfrm\UnityEngine.Physics2DModule.dll_881E41A579F104B1.mvfrm
Library\Bee\artifacts\mvdfrm\UnityEngine.PhysicsModule.dll_E54C659C1245FF9F.mvfrm
Library\Bee\artifacts\mvdfrm\UnityEngine.ProfilerModule.dll_7E6281C8E800D565.mvfrm
Library\Bee\artifacts\mvdfrm\UnityEngine.RuntimeInitializeOnLoadManagerInitializerModule.dll_DB17D4022BB5577A.mvfrm
Library\Bee\artifacts\mvdfrm\UnityEngine.ScreenCaptureModule.dll_F64BC040CE37A8E2.mvfrm
Library\Bee\artifacts\mvdfrm\UnityEngine.SharedInternalsModule.dll_95FFBAA0FFCA0139.mvfrm
Library\Bee\artifacts\mvdfrm\UnityEngine.SpriteMaskModule.dll_7F6B55192AE450CD.mvfrm
Library\Bee\artifacts\mvdfrm\UnityEngine.SpriteShapeModule.dll_7917495544A157D4.mvfrm
Library\Bee\artifacts\mvdfrm\UnityEngine.StreamingModule.dll_F00D3F05287BC45A.mvfrm
Library\Bee\artifacts\mvdfrm\UnityEngine.SubstanceModule.dll_CCB8534E73CEC268.mvfrm
Library\Bee\artifacts\mvdfrm\UnityEngine.SubsystemsModule.dll_EA18BB7AF92C38E0.mvfrm
Library\Bee\artifacts\mvdfrm\UnityEngine.TerrainModule.dll_FF92E10AE804488D.mvfrm
Library\Bee\artifacts\mvdfrm\UnityEngine.TerrainPhysicsModule.dll_30B5C5344E644E0E.mvfrm
Library\Bee\artifacts\mvdfrm\UnityEngine.TextCoreFontEngineModule.dll_672B6E2B8BD64499.mvfrm
Library\Bee\artifacts\mvdfrm\UnityEngine.TextCoreTextEngineModule.dll_AF13A49D1B59FDB7.mvfrm
Library\Bee\artifacts\mvdfrm\UnityEngine.TextRenderingModule.dll_1F8B324B856F28D7.mvfrm
Library\Bee\artifacts\mvdfrm\UnityEngine.TilemapModule.dll_9E8F488BFFC12996.mvfrm
Library\Bee\artifacts\mvdfrm\UnityEngine.TLSModule.dll_8CD94F2D7844D0B3.mvfrm
Library\Bee\artifacts\mvdfrm\UnityEngine.UIElementsModule.dll_EE571CE2FC5874D7.mvfrm
Library\Bee\artifacts\mvdfrm\UnityEngine.UIElementsNativeModule.dll_6CC7AF1AD05067CE.mvfrm
Library\Bee\artifacts\mvdfrm\UnityEngine.UIModule.dll_1088A966F8C6B850.mvfrm
Library\Bee\artifacts\mvdfrm\UnityEngine.UmbraModule.dll_288244A9CD917281.mvfrm
Library\Bee\artifacts\mvdfrm\UnityEngine.UNETModule.dll_990531EDAF1CEEF4.mvfrm
Library\Bee\artifacts\mvdfrm\UnityEngine.UnityAnalyticsModule.dll_4FDA8D2AE148A57D.mvfrm
Library\Bee\artifacts\mvdfrm\UnityEngine.UnityConnectModule.dll_56CEFD610C4C65B1.mvfrm
Library\Bee\artifacts\mvdfrm\UnityEngine.UnityCurlModule.dll_6E94F2E64907FF09.mvfrm
Library\Bee\artifacts\mvdfrm\UnityEngine.UnityTestProtocolModule.dll_610B8137764A97F7.mvfrm
Library\Bee\artifacts\mvdfrm\UnityEngine.UnityWebRequestAssetBundleModule.dll_A292E739C9691E0E.mvfrm
Library\Bee\artifacts\mvdfrm\UnityEngine.UnityWebRequestAudioModule.dll_73AF4EBDEFA293D2.mvfrm
Library\Bee\artifacts\mvdfrm\UnityEngine.UnityWebRequestModule.dll_238D83759390A068.mvfrm
Library\Bee\artifacts\mvdfrm\UnityEngine.UnityWebRequestTextureModule.dll_206A98BD1DCBB7E7.mvfrm
Library\Bee\artifacts\mvdfrm\UnityEngine.UnityWebRequestWWWModule.dll_79D5E9F90B19BA23.mvfrm
Library\Bee\artifacts\mvdfrm\UnityEngine.VehiclesModule.dll_C3DF4211C8D11DF3.mvfrm
Library\Bee\artifacts\mvdfrm\UnityEngine.VFXModule.dll_0DB7E79C4EB23A20.mvfrm
Library\Bee\artifacts\mvdfrm\UnityEngine.VideoModule.dll_D2B71CFC02FCE2B3.mvfrm
Library\Bee\artifacts\mvdfrm\UnityEngine.VirtualTexturingModule.dll_91546389A8FEE859.mvfrm
Library\Bee\artifacts\mvdfrm\UnityEngine.VRModule.dll_635ACFEC9A813DC8.mvfrm
Library\Bee\artifacts\mvdfrm\UnityEngine.WindModule.dll_7CADC52CF34477E4.mvfrm
Library\Bee\artifacts\mvdfrm\UnityEngine.XRModule.dll_961992F123BB8B26.mvfrm
Library\Bee\artifacts\mvdfrm\Unity.Android.Gradle.dll_FECCB72A1AB00038.mvfrm
Library\Bee\artifacts\mvdfrm\Unity.Android.Types.dll_8A70F4767ED48384.mvfrm
Library\Bee\artifacts\mvdfrm\UnityEditor.Android.Extensions.dll_4ADE8B4D1977FF78.mvfrm
Library\Bee\artifacts\mvdfrm\UnityEditor.WindowsStandalone.Extensions.dll_2F0B571F683F9850.mvfrm