Library\Bee\artifacts\mvdfrm\Unity.Services.Core.ref.dll_3F6B09C6C7F946B6.mvfrm
Library\Bee\artifacts\mvdfrm\UnityEngine.UI.ref.dll_12442A9E8ACBB5F1.mvfrm
Library\Bee\artifacts\mvdfrm\Unity.Burst.Cecil.dll_A54E2329887E8EF5.mvfrm
Library\Bee\artifacts\mvdfrm\Unity.Burst.Cecil.Mdb.dll_25155A9FB66D6772.mvfrm
Library\Bee\artifacts\mvdfrm\Unity.Burst.Cecil.Pdb.dll_3C67D30F352268F5.mvfrm
Library\Bee\artifacts\mvdfrm\Unity.Burst.Cecil.Rocks.dll_F141F4CD3267C9B5.mvfrm
Library\Bee\artifacts\mvdfrm\Unity.Burst.Unsafe.dll_B99620B1F2A7240E.mvfrm
Library\Bee\artifacts\mvdfrm\Unity.VisualScripting.Antlr3.Runtime.dll_8E26DE88A7412C94.mvfrm
Library\Bee\artifacts\mvdfrm\UnityEngine.AccessibilityModule.dll_C3EFBA68DEF4B9A8.mvfrm
Library\Bee\artifacts\mvdfrm\UnityEngine.AIModule.dll_FC646E0BD403E652.mvfrm
Library\Bee\artifacts\mvdfrm\UnityEngine.AndroidJNIModule.dll_2B067D24F6D3D510.mvfrm
Library\Bee\artifacts\mvdfrm\UnityEngine.AnimationModule.dll_6015542CDE36EE4E.mvfrm
Library\Bee\artifacts\mvdfrm\UnityEngine.ARModule.dll_B5D7330F3121451B.mvfrm
Library\Bee\artifacts\mvdfrm\UnityEngine.AssetBundleModule.dll_96118418FC11FB3C.mvfrm
Library\Bee\artifacts\mvdfrm\UnityEngine.AudioModule.dll_375C0DF82E0F0BC0.mvfrm
Library\Bee\artifacts\mvdfrm\UnityEngine.ClothModule.dll_9E446AF3082BEAA4.mvfrm
Library\Bee\artifacts\mvdfrm\UnityEngine.ClusterInputModule.dll_43D0C86814C2843A.mvfrm
Library\Bee\artifacts\mvdfrm\UnityEngine.ClusterRendererModule.dll_73E09636833875E7.mvfrm
Library\Bee\artifacts\mvdfrm\UnityEngine.CoreModule.dll_625869F690778EE9.mvfrm
Library\Bee\artifacts\mvdfrm\UnityEngine.CrashReportingModule.dll_2350AB37B03A0E21.mvfrm
Library\Bee\artifacts\mvdfrm\UnityEngine.DirectorModule.dll_6F115919A7C7CF46.mvfrm
Library\Bee\artifacts\mvdfrm\UnityEngine.dll_2E7AB2883B17865C.mvfrm
Library\Bee\artifacts\mvdfrm\UnityEngine.DSPGraphModule.dll_7462BA831A28A067.mvfrm
Library\Bee\artifacts\mvdfrm\UnityEngine.GameCenterModule.dll_5553C73FBD14C601.mvfrm
Library\Bee\artifacts\mvdfrm\UnityEngine.GIModule.dll_94A0B7196FB2CE6C.mvfrm
Library\Bee\artifacts\mvdfrm\UnityEngine.GridModule.dll_3FC985E4A8CC24E0.mvfrm
Library\Bee\artifacts\mvdfrm\UnityEngine.HotReloadModule.dll_E15E1232B96A09D0.mvfrm
Library\Bee\artifacts\mvdfrm\UnityEngine.ImageConversionModule.dll_DFD293E7055D2DDB.mvfrm
Library\Bee\artifacts\mvdfrm\UnityEngine.IMGUIModule.dll_6FBBAD5EF4409FA1.mvfrm
Library\Bee\artifacts\mvdfrm\UnityEngine.InputLegacyModule.dll_27569F379403B12D.mvfrm
Library\Bee\artifacts\mvdfrm\UnityEngine.InputModule.dll_9DD1D5A8A4473064.mvfrm
Library\Bee\artifacts\mvdfrm\UnityEngine.JSONSerializeModule.dll_240743A4DE301A32.mvfrm
Library\Bee\artifacts\mvdfrm\UnityEngine.LocalizationModule.dll_821D92BAAC3E7733.mvfrm
Library\Bee\artifacts\mvdfrm\UnityEngine.ParticleSystemModule.dll_7662F4841E4B99AF.mvfrm
Library\Bee\artifacts\mvdfrm\UnityEngine.PerformanceReportingModule.dll_881E570485164CA8.mvfrm
Library\Bee\artifacts\mvdfrm\UnityEngine.Physics2DModule.dll_ACBB441D7F33E5E3.mvfrm
Library\Bee\artifacts\mvdfrm\UnityEngine.PhysicsModule.dll_9CE476A504D1AE91.mvfrm
Library\Bee\artifacts\mvdfrm\UnityEngine.ProfilerModule.dll_A157925041215653.mvfrm
Library\Bee\artifacts\mvdfrm\UnityEngine.RuntimeInitializeOnLoadManagerInitializerModule.dll_D140C86DE5FD9CAC.mvfrm
Library\Bee\artifacts\mvdfrm\UnityEngine.ScreenCaptureModule.dll_3DEEF129F29C4694.mvfrm
Library\Bee\artifacts\mvdfrm\UnityEngine.SharedInternalsModule.dll_63E3D2BC7C8B292B.mvfrm
Library\Bee\artifacts\mvdfrm\UnityEngine.SpriteMaskModule.dll_3E8039CFDE845B7B.mvfrm
Library\Bee\artifacts\mvdfrm\UnityEngine.SpriteShapeModule.dll_AF72B173B1B43346.mvfrm
Library\Bee\artifacts\mvdfrm\UnityEngine.StreamingModule.dll_14AA417D2DBEA58C.mvfrm
Library\Bee\artifacts\mvdfrm\UnityEngine.SubstanceModule.dll_F15555C67911A39A.mvfrm
Library\Bee\artifacts\mvdfrm\UnityEngine.SubsystemsModule.dll_A92DA031ACCC438E.mvfrm
Library\Bee\artifacts\mvdfrm\UnityEngine.TerrainModule.dll_B72AF213DA8FF77F.mvfrm
Library\Bee\artifacts\mvdfrm\UnityEngine.TerrainPhysicsModule.dll_76DD9D57378E943C.mvfrm
Library\Bee\artifacts\mvdfrm\UnityEngine.TextCoreFontEngineModule.dll_8D9AAB2FCA7DA647.mvfrm
Library\Bee\artifacts\mvdfrm\UnityEngine.TextCoreTextEngineModule.dll_D582E1A15A015F65.mvfrm
Library\Bee\artifacts\mvdfrm\UnityEngine.TextRenderingModule.dll_672E6334A9D3C689.mvfrm
Library\Bee\artifacts\mvdfrm\UnityEngine.TilemapModule.dll_56275994F24CD888.mvfrm
Library\Bee\artifacts\mvdfrm\UnityEngine.TLSModule.dll_9D661910B6A87325.mvfrm
Library\Bee\artifacts\mvdfrm\UnityEngine.UIElementsModule.dll_AD6C0199AFF87F85.mvfrm
Library\Bee\artifacts\mvdfrm\UnityEngine.UIElementsNativeModule.dll_A960D6DA28735FBC.mvfrm
Library\Bee\artifacts\mvdfrm\UnityEngine.UIModule.dll_F7D80C39304AEBFE.mvfrm
Library\Bee\artifacts\mvdfrm\UnityEngine.UmbraModule.dll_B230BA10BB35B733.mvfrm
Library\Bee\artifacts\mvdfrm\UnityEngine.UNETModule.dll_F4FEB1DFDD868462.mvfrm
Library\Bee\artifacts\mvdfrm\UnityEngine.UnityAnalyticsModule.dll_9602654DCA72EBAB.mvfrm
Library\Bee\artifacts\mvdfrm\UnityEngine.UnityConnectModule.dll_B193D7615DC2B21F.mvfrm
Library\Bee\artifacts\mvdfrm\UnityEngine.UnityCurlModule.dll_9331F55E4E4AE03B.mvfrm
Library\Bee\artifacts\mvdfrm\UnityEngine.UnityTestProtocolModule.dll_DA80FCF6B91C1229.mvfrm
Library\Bee\artifacts\mvdfrm\UnityEngine.UnityWebRequestAssetBundleModule.dll_42F083FC97C356BC.mvfrm
Library\Bee\artifacts\mvdfrm\UnityEngine.UnityWebRequestAudioModule.dll_001AAAE30B811740.mvfrm
Library\Bee\artifacts\mvdfrm\UnityEngine.UnityWebRequestModule.dll_F1719B911051C85A.mvfrm
Library\Bee\artifacts\mvdfrm\UnityEngine.UnityWebRequestTextureModule.dll_51F664CA079B1515.mvfrm
Library\Bee\artifacts\mvdfrm\UnityEngine.UnityWebRequestWWWModule.dll_A04526FD49C11BD1.mvfrm
Library\Bee\artifacts\mvdfrm\UnityEngine.VehiclesModule.dll_E6D4529921F19EE1.mvfrm
Library\Bee\artifacts\mvdfrm\UnityEngine.VFXModule.dll_1E44B17F8D15DC92.mvfrm
Library\Bee\artifacts\mvdfrm\UnityEngine.VideoModule.dll_5C659262F0A12765.mvfrm
Library\Bee\artifacts\mvdfrm\UnityEngine.VirtualTexturingModule.dll_CDED8B490121E047.mvfrm
Library\Bee\artifacts\mvdfrm\UnityEngine.VRModule.dll_4AAA32BED2057176.mvfrm
Library\Bee\artifacts\mvdfrm\UnityEngine.WindModule.dll_D8A7451F21AE0D52.mvfrm
Library\Bee\artifacts\mvdfrm\UnityEngine.XRModule.dll_7D68F5C35B3FBED4.mvfrm