Library\Bee\artifacts\mvdfrm\Unity.Services.Core.Internal.ref.dll_AE380A6846362621.mvfrm
Library\Bee\artifacts\mvdfrm\Unity.Services.Core.ref.dll_14B3D3EA4B41B970.mvfrm
Library\Bee\artifacts\mvdfrm\UnityEngine.UI.ref.dll_B7EAB4C997F13057.mvfrm
Library\Bee\artifacts\mvdfrm\Unity.Burst.Cecil.dll_A54E2329887E8EF5.mvfrm
Library\Bee\artifacts\mvdfrm\Unity.Burst.Cecil.Mdb.dll_25155A9FB66D6772.mvfrm
Library\Bee\artifacts\mvdfrm\Unity.Burst.Cecil.Pdb.dll_3C67D30F352268F5.mvfrm
Library\Bee\artifacts\mvdfrm\Unity.Burst.Cecil.Rocks.dll_F141F4CD3267C9B5.mvfrm
Library\Bee\artifacts\mvdfrm\Unity.Burst.Unsafe.dll_B99620B1F2A7240E.mvfrm
Library\Bee\artifacts\mvdfrm\Unity.VisualScripting.Antlr3.Runtime.dll_8E26DE88A7412C94.mvfrm
Library\Bee\artifacts\mvdfrm\UnityEngine.AccessibilityModule.dll_713B8E29624FB949.mvfrm
Library\Bee\artifacts\mvdfrm\UnityEngine.AIModule.dll_8499B5B72AAB74E1.mvfrm
Library\Bee\artifacts\mvdfrm\UnityEngine.AndroidJNIModule.dll_AE3B215CB04BAB1F.mvfrm
Library\Bee\artifacts\mvdfrm\UnityEngine.AnimationModule.dll_6A87E7EB165B9DAF.mvfrm
Library\Bee\artifacts\mvdfrm\UnityEngine.ARModule.dll_3E0C7ABA87C8D3AA.mvfrm
Library\Bee\artifacts\mvdfrm\UnityEngine.AssetBundleModule.dll_0B70CAD58EF9D0BD.mvfrm
Library\Bee\artifacts\mvdfrm\UnityEngine.AudioModule.dll_FB711C3CE86B7AE1.mvfrm
Library\Bee\artifacts\mvdfrm\UnityEngine.ClothModule.dll_62597937C28859C5.mvfrm
Library\Bee\artifacts\mvdfrm\UnityEngine.CoreModule.dll_B2AA3B87A5D81558.mvfrm
Library\Bee\artifacts\mvdfrm\UnityEngine.CrashReportingModule.dll_35CD668718596FF0.mvfrm
Library\Bee\artifacts\mvdfrm\UnityEngine.DirectorModule.dll_5A79CF344488F975.mvfrm
Library\Bee\artifacts\mvdfrm\UnityEngine.dll_5C674D00DD8794BD.mvfrm
Library\Bee\artifacts\mvdfrm\UnityEngine.DSPGraphModule.dll_5FCB309DB6E9CA96.mvfrm
Library\Bee\artifacts\mvdfrm\UnityEngine.GameCenterModule.dll_D8886B77768C9C10.mvfrm
Library\Bee\artifacts\mvdfrm\UnityEngine.GIModule.dll_1CD5FEC4C65A5CFB.mvfrm
Library\Bee\artifacts\mvdfrm\UnityEngine.GridModule.dll_901B5775BE2CAB4F.mvfrm
Library\Bee\artifacts\mvdfrm\UnityEngine.HotReloadModule.dll_EBD0A5F0F18EB931.mvfrm
Library\Bee\artifacts\mvdfrm\UnityEngine.ImageConversionModule.dll_38263B228AC3DB9C.mvfrm
Library\Bee\artifacts\mvdfrm\UnityEngine.IMGUIModule.dll_33D0BBA3AE9D0EC2.mvfrm
Library\Bee\artifacts\mvdfrm\UnityEngine.InputLegacyModule.dll_9CB5E5F426EB86AE.mvfrm
Library\Bee\artifacts\mvdfrm\UnityEngine.InputModule.dll_61E6E3ED5EA39F85.mvfrm
Library\Bee\artifacts\mvdfrm\UnityEngine.JSONSerializeModule.dll_D1531765618B19D3.mvfrm
Library\Bee\artifacts\mvdfrm\UnityEngine.LocalizationModule.dll_B0DA2804AC0B3522.mvfrm
Library\Bee\artifacts\mvdfrm\UnityEngine.ParticleSystemModule.dll_88DFAFD3866AFB7E.mvfrm
Library\Bee\artifacts\mvdfrm\UnityEngine.PerformanceReportingModule.dll_23AC9298B9EB0217.mvfrm
Library\Bee\artifacts\mvdfrm\UnityEngine.Physics2DModule.dll_B72DD7DBB7589544.mvfrm
Library\Bee\artifacts\mvdfrm\UnityEngine.PhysicsModule.dll_98A894CD240ABBD2.mvfrm
Library\Bee\artifacts\mvdfrm\UnityEngine.ProfilerModule.dll_8CC0086ADDE28082.mvfrm
Library\Bee\artifacts\mvdfrm\UnityEngine.RuntimeInitializeOnLoadManagerInitializerModule.dll_9CCD2CADAB2E8E0D.mvfrm
Library\Bee\artifacts\mvdfrm\UnityEngine.ScreenCaptureModule.dll_EB3AC4EA75F74635.mvfrm
Library\Bee\artifacts\mvdfrm\UnityEngine.SharedInternalsModule.dll_BC3779F801F1D6EC.mvfrm
Library\Bee\artifacts\mvdfrm\UnityEngine.SpriteMaskModule.dll_C1B4DE0797FC318A.mvfrm
Library\Bee\artifacts\mvdfrm\UnityEngine.SpriteShapeModule.dll_24D1F830449C08C7.mvfrm
Library\Bee\artifacts\mvdfrm\UnityEngine.StreamingModule.dll_1F1CD53B65E354ED.mvfrm
Library\Bee\artifacts\mvdfrm\UnityEngine.SubstanceModule.dll_FBC7E984B13652FB.mvfrm
Library\Bee\artifacts\mvdfrm\UnityEngine.SubsystemsModule.dll_2C6244696644199D.mvfrm
Library\Bee\artifacts\mvdfrm\UnityEngine.TerrainModule.dll_B2EF103BF9C904C0.mvfrm
Library\Bee\artifacts\mvdfrm\UnityEngine.TerrainPhysicsModule.dll_895A58A69FADF60B.mvfrm
Library\Bee\artifacts\mvdfrm\UnityEngine.TextCoreFontEngineModule.dll_590F67CBD36983D6.mvfrm
Library\Bee\artifacts\mvdfrm\UnityEngine.TextCoreTextEngineModule.dll_A0F79E3D62ED3CF4.mvfrm
Library\Bee\artifacts\mvdfrm\UnityEngine.TextRenderingModule.dll_147A36F52D2EC62A.mvfrm
Library\Bee\artifacts\mvdfrm\UnityEngine.TilemapModule.dll_51EB77BD1185E5C9.mvfrm
Library\Bee\artifacts\mvdfrm\UnityEngine.TLSModule.dll_93981022D67EC826.mvfrm
Library\Bee\artifacts\mvdfrm\UnityEngine.UIElementsModule.dll_30A0A5D169705594.mvfrm
Library\Bee\artifacts\mvdfrm\UnityEngine.UIElementsNativeModule.dll_3C336D802232A16B.mvfrm
Library\Bee\artifacts\mvdfrm\UnityEngine.UIModule.dll_800D53E486F27A8D.mvfrm
Library\Bee\artifacts\mvdfrm\UnityEngine.UmbraModule.dll_7645C85575922654.mvfrm
Library\Bee\artifacts\mvdfrm\UnityEngine.UNETModule.dll_45508370F2E70AD1.mvfrm
Library\Bee\artifacts\mvdfrm\UnityEngine.UnityAnalyticsModule.dll_A87F209D32924D7A.mvfrm
Library\Bee\artifacts\mvdfrm\UnityEngine.UnityConnectModule.dll_E0506CAB5D8F700E.mvfrm
Library\Bee\artifacts\mvdfrm\UnityEngine.UnityCurlModule.dll_9DA4891C866F8F9C.mvfrm
Library\Bee\artifacts\mvdfrm\UnityEngine.UnityTestProtocolModule.dll_9F57DB96981F720A.mvfrm
Library\Bee\artifacts\mvdfrm\UnityEngine.UnityWebRequestAssetBundleModule.dll_3FFA638D6EA6FBCB.mvfrm
Library\Bee\artifacts\mvdfrm\UnityEngine.UnityWebRequestAudioModule.dll_9BA8E6774055CCAF.mvfrm
Library\Bee\artifacts\mvdfrm\UnityEngine.UnityWebRequestModule.dll_49C542CC95B8761B.mvfrm
Library\Bee\artifacts\mvdfrm\UnityEngine.UnityWebRequestTextureModule.dll_11DD9D7F2D345E64.mvfrm
Library\Bee\artifacts\mvdfrm\UnityEngine.UnityWebRequestWWWModule.dll_6BB9E39952ACF960.mvfrm
Library\Bee\artifacts\mvdfrm\UnityEngine.VehiclesModule.dll_D23CC8B3BEB2C910.mvfrm
Library\Bee\artifacts\mvdfrm\UnityEngine.VFXModule.dll_1476A891ACEC3193.mvfrm
Library\Bee\artifacts\mvdfrm\UnityEngine.VideoModule.dll_207AA0A7AAFD9686.mvfrm
Library\Bee\artifacts\mvdfrm\UnityEngine.VRModule.dll_D2DF7A6A28AD0005.mvfrm
Library\Bee\artifacts\mvdfrm\UnityEngine.WindModule.dll_28F916B0370E93C1.mvfrm
Library\Bee\artifacts\mvdfrm\UnityEngine.XRModule.dll_059E3D6EB1E74D63.mvfrm